%!PS-Adobe-3.0 EPSF-3.0
%%BoundingBox: 0 0 1200 900

%%%%%%%%%%%%%%%%%%%%%%%%%%%%%%%%%%%%%%%%%%%%%%%%%%%%%%%%%%%%%%%%%%%%%%%%%
%        This Postscript is Copyright (c) 2014, Peter J Billam          %
%                                                                       %
% Permission is granted  to any individual or institution to use, copy, %
% modify or redistribute this software, so long as it is not resold for %
% profit, and provided this notice is retained. It is provided "as is", %
% without any express or implied warranty.    http://www.pjb.com.au     %
%%%%%%%%%%%%%%%%%%%%%%%%%%%%%%%%%%%%%%%%%%%%%%%%%%%%%%%%%%%%%%%%%%%%%%%%%
%%EndComments
%%BeginProlog

/leftshow { % usage: x y font fontsize (string) leftshow
    /s exch def /fontsize exch def /font exch def /y exch def /x exch def
    gsave font findfont  fontsize scalefont  setfont
    x y moveto s show grestore
} bind def

/centreshow { % usage: x y font fontsize (string) centreshow
    /s exch def /fontsize exch def /font exch def 
    gsave moveto font findfont fontsize scalefont setfont
    gsave s false charpath flattenpath pathbbox grestore
    exch 4 -1 roll pop pop s stringwidth pop -0.5 mul  % dx/2
    3 1 roll sub 0.5 mul % dy/2
    rmoveto s show grestore
} bind def

/centrexshow {  % usage: x y font fontsize (string) centrexshow
    /s exch def /fontsize exch def /font exch def /y exch def /x exch def
    gsave font findfont  fontsize scalefont  setfont
    x s stringwidth pop 0.5 mul sub  y moveto s show grestore
} bind def

/wordbreak ( ) def
/BreakIntoLines {
    /proc       exch def  % will be executed at each end-of-line
    /linewidth  exch def
    /textstring exch def
    /breakwidth wordbreak stringwidth pop def
    /curwidth 0 def
    /lastwordbreak 0 def
    /startchar 0 def
    /restoftext textstring def
    {   % loop
        restoftext wordbreak search {   % if?
            /nextword exch def pop
            /restoftext exch def
            /wordwidth nextword stringwidth pop def
            curwidth wordwidth add linewidth gt {   %if?
                textstring startchar  lastwordbreak startchar sub  
                  getinterval proc
                /startchar lastwordbreak def
                /curwidth wordwidth breakwidth add def
            } {   % else?
                /curwidth curwidth wordwidth add breakwidth add def
            } ifelse
            /lastwordbreak lastwordbreak nextword length add 1 add def
        } {   % else?
            pop exit
        } ifelse
    } loop
    /lastchar textstring length def
    textstring startchar lastchar startchar sub getinterval proc
} def

/CurrentFontSize {
    currentfont /FontMatrix get 0 get 1000 mul
} def

/JustifyText {   % usage: x y linewidth textstring JustifyText
    /textstring exch def
    /linewidth  exch def
    /y_justifytext exch def
    /xline exch def
    % invokes BreakIntoLines with a proc that looks at the linestring,
    % measures its stringwidth, subracts that from linewidth,
    % divides the result by the length, then invokes ashow with that ax
    /yline y_justifytext def
    % invocation of BreakIntoLines starts here:
    textstring linewidth
    {
        /linestring exch def
        /ax linewidth linestring stringwidth pop sub linestring length div def
        xline yline moveto
        ax 0 linestring ashow
        /yline  yline CurrentFontSize 1.04 mul sub  def
    } BreakIntoLines
} def



%%EndProlog
%%Page: 1 1
%%BeginPageSetup
%%EndPageSetup

4.2 dup scale

/y 160 def
/dy 12 def
/x1 15 def
/x2 x1 dy 2.8 mul add def
/x3 x2 dy 4.2 mul add def
/fs dy 0.6 mul def

130 y /Times-Roman dy 1.2 mul (After the War :  1951-67) centrexshow
/y y dy 2.5 mul sub def
x1 y /Times-Roman fs (1951) leftshow
x2 y /Times-Bold   fs (Hollywood) leftshow
x3 y /Times-Italic fs (An American in Paris) leftshow
/y y dy sub def
x1 y /Times-Roman fs (1952) leftshow
x2 y /Times-Bold   fs (Paris) leftshow
x3 y /Times-Italic fs (Masterpieces of the Twentieth Century  festival) leftshow
/y y dy sub def
x1 y /Times-Roman fs (1953) leftshow
x2 y /Times-Bold   fs (Hollywood) leftshow
x3 y /Times-Italic fs (Roman Holiday) leftshow
/y y dy sub def
x1 y /Times-Roman fs (1954) leftshow
x2 y /Times-Bold   fs (Rome) leftshow
x3 y /Times-Italic fs (International Conference of Twentieth Century Music) leftshow
/y y dy sub def
x1 y /Times-Roman fs (1955) leftshow
x2 y /Times-Bold   fs (UK) leftshow
x3 y /Times-Italic fs (Saga Records) leftshow
/y y dy sub def
x1 y /Times-Roman fs (1967 / 05) leftshow
x2 y /Times-Bold   fs (Sat. Eve. Post) leftshow
x3 y /Times-Italic fs (Tom Braden dissolves the Congress for Cultural Freedom) leftshow
/y y dy 2.5 mul sub def

135 y /Times-Italic fs (www.pjb.com.au) centrexshow

showpage
%%EOF
