%!PS-Adobe-2.0
%%%%%%%%%%%%%%%%%%%%%%%%%%%%%%%%%%%%%%%%%%%%%%%%%%%%%%%%%%%%%%%%%%%%%%%%%
%        This Postscript is Copyright (c) 2014, Peter J Billam          %
%                                                                       %
% Permission is granted  to any individual or institution to use, copy, %
% modify or redistribute this software, so long as it is not resold for %
% profit, and provided this notice is retained. It is provided "as is", %
% without any express or implied warranty.    http://www.pjb.com.au     %
%%%%%%%%%%%%%%%%%%%%%%%%%%%%%%%%%%%%%%%%%%%%%%%%%%%%%%%%%%%%%%%%%%%%%%%%%
%%EndComments
%%BeginProlog

72 25.4 div dup scale

/leftshow { % usage: x y font fontsize (string) leftshow
    /s exch def /fontsize exch def /font exch def /y exch def /x exch def
    gsave font findfont  fontsize scalefont  setfont
    x y moveto s show grestore
} bind def

/centreshow { % usage: x y font fontsize (string) centreshow
    /s exch def /fontsize exch def /font exch def 
    gsave moveto font findfont fontsize scalefont setfont
    gsave s false charpath flattenpath pathbbox grestore
    exch 4 -1 roll pop pop s stringwidth pop -0.5 mul  % dx/2
    3 1 roll sub 0.5 mul % dy/2
    rmoveto s show grestore
} bind def

/centrexshow {  % usage: x y font fontsize (string) centrexshow
    /s exch def /fontsize exch def /font exch def /y exch def /x exch def
    gsave font findfont  fontsize scalefont  setfont
    x s stringwidth pop 0.5 mul sub  y moveto s show grestore
} bind def

/wordbreak ( ) def
/BreakIntoLines {
    /proc       exch def  % will be executed at each end-of-line
    /linewidth  exch def
    /textstring exch def
    /breakwidth wordbreak stringwidth pop def
    /curwidth 0 def
    /lastwordbreak 0 def
    /startchar 0 def
    /restoftext textstring def
    {   % loop
        restoftext wordbreak search {   % if?
            /nextword exch def pop
            /restoftext exch def
            /wordwidth nextword stringwidth pop def
            curwidth wordwidth add linewidth gt {   %if?
                textstring startchar  lastwordbreak startchar sub  
                  getinterval proc
                /startchar lastwordbreak def
                /curwidth wordwidth breakwidth add def
            } {   % else?
                /curwidth curwidth wordwidth add breakwidth add def
            } ifelse
            /lastwordbreak lastwordbreak nextword length add 1 add def
        } {   % else?
            pop exit
        } ifelse
    } loop
    /lastchar textstring length def
    textstring startchar lastchar startchar sub getinterval proc
} def

/CurrentFontSize {
    currentfont /FontMatrix get 0 get 1000 mul
} def

/JustifyText {   % usage: x y linewidth textstring JustifyText
    /textstring exch def
    /linewidth  exch def
    /y_justifytext exch def
    /xline exch def
    % invokes BreakIntoLines with a proc that looks at the linestring,
    % measures its stringwidth, subracts that from linewidth,
    % divides the result by the length, then invokes ashow with that ax
    /yline y_justifytext def
    % invocation of BreakIntoLines starts here:
    textstring linewidth
    {
        /linestring exch def
        /ax linewidth linestring stringwidth pop sub linestring length div def
        xline yline moveto
        ax 0 linestring ashow
        /yline  yline CurrentFontSize 1.04 mul sub  def
    } BreakIntoLines
} def



%%EndProlog
%%Page: 1 1
%%BeginPageSetup
%%EndPageSetup

/y 260 def
/dy 8 def
/x1 15 def
/x2 x1 dy 3.0 mul add def
/x3 x2 dy 4.5 mul add def
/fs dy 0.6 mul def

105 y /Times-Roman dy 1.6 mul (After the War) centrexshow
/y y dy 2.5 mul sub def
x1 y /Times-Roman fs (1943) leftshow
x2 y /Times-Bold   fs (OWI) leftshow
x3 y /Times-Italic fs (ran cultural affairs in Allied-occupied countries) leftshow
/y y dy sub def
x1 y /Times-Roman fs (1944) leftshow
x2 y /Times-Bold   fs (PWD) leftshow
x3 y /Times-Italic fs (OWI changed into PWD) leftshow
/y y dy sub def
x1 y /Times-Roman fs (1945) leftshow
x2 y /Times-Bold   fs (ICD) leftshow
x3 y /Times-Italic fs (PWD changed into ICD in OMGUS under Robert McClure) leftshow
/y y dy sub def
x1 y /Times-Roman fs (1946) leftshow
x2 y /Times-Bold   fs (Darmstadt) leftshow
x3 y /Times-Italic fs (set up by OMGUS) leftshow
/y y dy sub def
x1 y /Times-Roman fs (1947 / 03) leftshow
x2 y /Times-Bold   fs (Truman Doctrine) leftshow
x3 y /Times-Italic fs (    communism becomes the enemy) leftshow
/y y dy sub def
x1 y /Times-Roman fs (1947 / 06) leftshow
x2 y /Times-Bold   fs (Marshall Plan) leftshow
x3 y /Times-Italic fs (huge-spending soft-power operation) leftshow
/y y dy sub def
x1 y /Times-Roman fs (1947 / 07) leftshow
x2 y /Times-Bold   fs (CIA) leftshow
x3 y /Times-Italic fs (Central Intelligence Agency  created) leftshow
/y y dy sub def
x1 y /Times-Roman fs (1947 / 10) leftshow
x2 y /Times-Bold   fs (ComInform) leftshow
x3 y /Times-Italic fs (inaugural meeting in Belgrade) leftshow
/y y dy sub def
x1 y /Times-Roman fs (1949 / 03) leftshow
x2 y /Times-Bold   fs (Waldorf Astoria) leftshow
x3 y /Times-Italic fs (Nabokov provokes Shostakovich) leftshow
/y y dy sub def
x1 y /Times-Roman fs (1950 / 04) leftshow
x2 y /Times-Bold   fs (Berlin) leftshow
x3 y /Times-Italic fs (Congress for Cultural Freedom) leftshow
/y y dy sub def
x1 y /Times-Roman fs (1950) leftshow
x2 y /Times-Bold   fs (Berlin) leftshow
x3 y /Times-Italic fs (OMGUS  dissolved) leftshow
/y y dy sub def
x1 y /Times-Roman fs (1951) leftshow
x2 y /Times-Bold   fs (Hollywood) leftshow
x3 y /Times-Italic fs (An American in Paris) leftshow
/y y dy sub def
x1 y /Times-Roman fs (1952) leftshow
x2 y /Times-Bold   fs (Paris) leftshow
x3 y /Times-Italic fs (Masterpieces of the Twentieth Century  festival) leftshow
/y y dy sub def
x1 y /Times-Roman fs (1953) leftshow
x2 y /Times-Bold   fs (Hollywood) leftshow
x3 y /Times-Italic fs (Roman Holiday) leftshow
/y y dy sub def
x1 y /Times-Roman fs (1954) leftshow
x2 y /Times-Bold   fs (Rome) leftshow
x3 y /Times-Italic fs (International Conference of Twentieth Century Music) leftshow
/y y dy sub def
x1 y /Times-Roman fs (1955) leftshow
x2 y /Times-Bold   fs (UK) leftshow
x3 y /Times-Italic fs (Saga Records) leftshow
/y y dy sub def
x1 y /Times-Roman fs (1967 / 05) leftshow
x2 y /Times-Bold   fs (Sat. Eve. Post) leftshow
x3 y /Times-Italic fs (Tom Braden dissolves the Congress for Cultural Freedom) leftshow
/y y dy 2.0 mul sub def

105 y /Times-Roman dy (Summary :) centrexshow
/y y dy 1.5 mul sub def
/Times-Italic findfont fs scalefont setfont
35 y 140
(Between them, OMGUS and the Congress for Cultural Freedom severed the \
composing tradition of classical music, and preserved classical music \
as a teaching and performing tradition with a static repertoire, knowing \
that, in the recording era, a static repertoire can not survive.)
JustifyText

/y y dy 4.0 mul sub def
105 y /Times-Roman dy (See :) centrexshow
/y y dy sub def
105 y /Times-Italic fs
(Settling Scores: German Music, Denazification and the Americans, 1945 to 1953, by David Monod) centrexshow
/y y dy 0.7 mul sub def
105 y /Times-Italic fs
(Who Paid the Piper, by Frances Stonor Saunders) centrexshow
/y y dy 0.7 mul sub def
105 y /Times-Italic fs
(The Rest is Noise, by Alex Ross) centrexshow
/y y dy 0.7 mul sub def
105 y /Times-Italic fs
(www.ubu.com/film/ and see Stockhausen, Larry Miller, etc etc) centrexshow
/y y dy 0.7 mul sub def
105 y /Times-Italic fs
(www.pjb.com.au) centrexshow

showpage
%%EOF
